﻿  main.cpp
c:\users\yunus\onedrive\belgeler\visual studio 2017\projects\consoleapplication4\consoleapplication4\solotest.h(28): warning C4305: 'initializing': truncation from 'double' to 'float'
  ConsoleApplication4.vcxproj -> C:\Users\yunus\OneDrive\Belgeler\Visual Studio 2017\Projects\ConsoleApplication4\x64\Debug\ConsoleApplication4.exe
  ConsoleApplication4.vcxproj -> C:\Users\yunus\OneDrive\Belgeler\Visual Studio 2017\Projects\ConsoleApplication4\x64\Debug\ConsoleApplication4.pdb (Partial PDB)
