^C:\USERS\YUNUS\ONEDRIVE\BELGELER\VISUAL STUDIO 2017\PROJECTS\CONSOLEAPPLICATION4\CONSOLEAPPLICATION4\X64\DEBUG\BURROW.OBJ|C:\USERS\YUNUS\ONEDRIVE\BELGELER\VISUAL STUDIO 2017\PROJECTS\CONSOLEAPPLICATION4\CONSOLEAPPLICATION4\X64\DEBUG\CONSOLEDESIGN.OBJ|C:\USERS\YUNUS\ONEDRIVE\BELGELER\VISUAL STUDIO 2017\PROJECTS\CONSOLEAPPLICATION4\CONSOLEAPPLICATION4\X64\DEBUG\LEARNER.OBJ|C:\USERS\YUNUS\ONEDRIVE\BELGELER\VISUAL STUDIO 2017\PROJECTS\CONSOLEAPPLICATION4\CONSOLEAPPLICATION4\X64\DEBUG\MAIN.OBJ|C:\USERS\YUNUS\ONEDRIVE\BELGELER\VISUAL STUDIO 2017\PROJECTS\CONSOLEAPPLICATION4\CONSOLEAPPLICATION4\X64\DEBUG\MARKER.OBJ|C:\USERS\YUNUS\ONEDRIVE\BELGELER\VISUAL STUDIO 2017\PROJECTS\CONSOLEAPPLICATION4\CONSOLEAPPLICATION4\X64\DEBUG\PIN.OBJ|C:\USERS\YUNUS\ONEDRIVE\BELGELER\VISUAL STUDIO 2017\PROJECTS\CONSOLEAPPLICATION4\CONSOLEAPPLICATION4\X64\DEBUG\SOLOTEST.OBJ
C:\USERS\YUNUS\ONEDRIVE\BELGELER\VISUAL STUDIO 2017\PROJECTS\CONSOLEAPPLICATION4\X64\DEBUG\CONSOLEAPPLICATION4.EXE
C:\USERS\YUNUS\ONEDRIVE\BELGELER\VISUAL STUDIO 2017\PROJECTS\CONSOLEAPPLICATION4\X64\DEBUG\CONSOLEAPPLICATION4.ILK
C:\USERS\YUNUS\ONEDRIVE\BELGELER\VISUAL STUDIO 2017\PROJECTS\CONSOLEAPPLICATION4\X64\DEBUG\CONSOLEAPPLICATION4.PDB
